{
  "db": {
    "host": "localhost",
    "port" : 27017,
    "url": "",
    "database": "demo",
    "password": "",
    "name": "db",
    "user": "",
    "useNewUrlParser": true,
    "useUnifiedTopology": true,
    "connector": "mongodb"
  }
}
